Introduction to R for Excel Users
…
---

## Tibbles

Tibbles have enhanced (and opinionated) printing behavior.

```r
tibble(x = 1:500, y = sample(1:500), z = rnorm(500))
```

```
## # A tibble: 500 x 3
##        x     y       z
##    <int> <int>   <dbl>
##  1     1    77  0.245 
##  2     2   170  1.54  
##  3     3   192 -1.02  
##  4     4   111  0.0487
##  5     5   178  0.162 
##  6     6   210 -1.82  
##  7     7   136 -0.379 
##  8     8   270  0.151 
##  9     9     7  0.692 
## 10    10   353  0.220 
## # ... with 490 more rows
```
…
