Data Transformation
…
---

## Filter

Filter `txhousing` to keep rows where `year` is 2008 **or** `city` is Lubbock. 

```r
filter(txhousing, year == 2008 | city == "Lubbock")
```

```
## # A tibble: 727 x 9
##    city     year month sales   volume median listings inventory  date
##    <chr>   <int> <int> <dbl>    <dbl>  <dbl>    <dbl>     <dbl> <dbl>
##  1 Abilene  2008     1    84  9089942  88800      859       5.3 2008 
##  2 Abilene  2008     2   127 15970270 111900      899       5.6 2008.
##  3 Abilene  2008     3   147 15496685  97500      923       5.9 2008.
##  4 Abilene  2008     4   161 18288157 106900      941       6.1 2008.
##  5 Abilene  2008     5   182 21314933 104000      951       6.3 2008.
##  6 Abilene  2008     6   180 21146068 110400     1000       6.7 2008.
##  7 Abilene  2008     7   171 19502253 106400     1013       7.1 2008.
##  8 Abilene  2008     8   131 16067354 111200      966       7   2009.
##  9 Abilene  2008     9   141 15643014 106900      992       7.2 2009.
## 10 Abilene  2008    10   116 15057270 131600      860       6.3 2009.
## # ... with 717 more rows
```
…
